@startuml
scale 1500*1000
minerva_SimpleBuildingState <|-- hit2gap_BlindsState
hit2gap_BlindsState<|-- hit2gap_BlindUp
hit2gap_BlindsState<|-- hit2gap_BlindDown
minerva_SimpleBuildingState <|-- hit2gap_DoorState
hit2gap_DoorState<|-- hit2gap_OpenDoor
hit2gap_DoorState<|-- hit2gap_CloseDoor
minerva_SimpleBuildingState <|-- hit2gap_HVACState
hit2gap_HVACState<|-- hit2gap_HVACStateOn
hit2gap_HVACState<|-- hit2gap_HVACStateOff
minerva_SimpleBuildingState <|-- hit2gap_HeaterState
hit2gap_HVACState<|-- hit2gap_HeaterStateOn
hit2gap_HVACState<|-- hit2gap_HeaterStateOff
minerva_SimpleBuildingState <|-- hit2gap_WindowState
hit2gap_WindowState<|-- hit2gap_WindowOpen
hit2gap_WindowState<|-- hit2gap_WindowClosed
minerva_SimpleBuildingState <|-- hit2gap_LightState
hit2gap_LightState<|-- hit2gap_LightStateOn
hit2gap_LightState<|-- hit2gap_LightStateOff
minerva_SimpleBuildingState <|-- hit2gap_ZoneState
hit2gap_ZoneState<|-- hit2gap_ZoneEmpty
hit2gap_ZoneState<|-- hit2gap_ZoneOccupied
@enduml
