@startuml
minerva_BuildingComplexState <|-- hit2gap_ComfortState
hit2gap_ComfortState<|-- hit2gap_OccupantComfort
hit2gap_ComfortState<|-- hit2gap_OccupantUncomfort
hit2gap_ComfortState <|-- hit2gap_EnergyEfficiencyState
hit2gap_EnergyEfficiencyState <|-- hit2gap_EnergyEfficientState
hit2gap_EnergyEfficiencyState <|-- hit2gap_EnergyInefficientState
hit2gap_EnergyInefficientState <|-- hit2gap_EnergyAnomaly
hit2gap_EnergyInefficientState <|-- hit2gap_EnergyWasting
@enduml
