@startuml
minerva_ComplexState <|-- minerva_BuildingComplexState
minerva_ComplexState <|-- minerva_WaterInfrastructureComplexState
minerva_ComplexState <|-- minerva_IndustryInfrastructureComplexState
@enduml
