@startuml
minerva_HydrologicPhenomenon<|-- minerva_LandCover
minerva_HydrologicPhenomenon<|-- minerva_PanEvaporation
minerva_HydrologicPhenomenon<|-- minerva_Recharge
minerva_HydrologicPhenomenon<|-- minerva_RunOff
minerva_HydrologicPhenomenon<|-- minerva_Specie
minerva_HydrologicPhenomenon<|-- minerva_Turbidity
minerva_HydrologicPhenomenon<|-- minerva_Transpiration
@enduml
